{
	"editors": [
		{
			"type": "method",
			"id": 2147483636,
			"codeDescriptor": {
				"type": 1,
				"methodName": "00_test"
			}
		},
		{
			"type": "explorer"
		},
		{
			"type": "method",
			"id": 2147483627,
			"codeDescriptor": {
				"type": 1,
				"methodName": "_Build"
			}
		}
	]
}