﻿{
	"CFBundleName": "Time Stamp",
	"CFBundleShortVersionString": "20.1 [4D 20 R3 (100359)]",
	"CFBundleGetInfoString": "Time Stamp 20.1 [4D 20 R3 (100359)], 2024-05-19",
	"NSHumanReadableCopyright": "©2004-2024, Mac to Basics"
}